…
Check for completeness and correctness across datasets (e.g. by viewing
individual datasets and using `anti_join`)

``` r
anti_join(bakers, bakes, by = c("series", "baker_first_name"))
```

    ## # A tibble: 26 × 6
    ##    baker_first_name baker_last_name series baker_age baker_occupation   hometown
    ##    <chr>            <chr>            <dbl>     <dbl> <chr>              <chr>   
    ##  1 Alice            Fevronia            10        28 Geography teacher  Essex   
    ##  2 Amelia           LeBruin             10        24 Fashion designer   Halifax 
    ##  3 Antony           Amourdoux            9        30 Banker             London  
    ##  4 Briony           Williams             9        33 Full-time parent   Bristol 
    ##  5 Dan              Beasley-Harling      9        36 Full-time parent   London  
    ##  6 Dan              Chambers            10        32 Support worker     Rotherh…
    ##  7 David            Atherton            10        36 International hea… Whitby  
    ##  8 Helena           Garcia              10        40 Online project ma… Leeds   
    ##  9 Henry            Bird                10        20 Student            Durham  
    ## 10 Imelda           McCarron             9        33 Countryside recre… County …
    ## # ℹ 16 more rows
…
``` r
anti_join(bakers, results, by = c("series", "baker_first_name"))
```

    ## # A tibble: 1 × 6
    ##   baker_first_name baker_last_name series baker_age baker_occupation hometown   
    ##   <chr>            <chr>            <dbl>     <dbl> <chr>            <chr>      
    ## 1 Jo               Wheatley             2        41 Housewife        Ongar, Ess…

``` r
anti_join(results, bakes, by = c("series", "baker_first_name")) |> 
  relocate(series, episode, baker_first_name)
```

    ## # A tibble: 258 × 5
    ##    series episode baker_first_name technical result    
    ##     <dbl>   <dbl> <chr>                <dbl> <chr>     
    ##  1      2       1 Joanne                  11 IN        
    ##  2      2       2 Joanne                  10 IN        
    ##  3      2       3 Joanne                   1 IN        
    ##  4      2       4 Joanne                   8 IN        
    ##  5      2       5 Joanne                   6 IN        
    ##  6      2       6 Joanne                   1 STAR BAKER
    ##  7      2       7 Joanne                   3 IN        
    ##  8      2       8 Joanne                   1 WINNER    
    ##  9      9       1 Antony                  12 IN        
    ## 10      9       1 Briony                   2 IN        
    ## # ℹ 248 more rows

``` r
anti_join(results, bakes, by = c("series", "episode", "baker_first_name")) |> 
  relocate(series, episode, baker_first_name)
```

    ## # A tibble: 596 × 5
    ##    series episode baker_first_name technical result
    ##     <dbl>   <dbl> <chr>                <dbl> <chr> 
    ##  1      1       2 Lea                     NA <NA>  
    ##  2      1       2 Mark                    NA <NA>  
    ##  3      1       3 Annetha                 NA <NA>  
    ##  4      1       3 Lea                     NA <NA>  
    ##  5      1       3 Louise                  NA <NA>  
    ##  6      1       3 Mark                    NA <NA>  
    ##  7      1       4 Annetha                 NA <NA>  
    ##  8      1       4 Jonathan                NA <NA>  
    ##  9      1       4 Lea                     NA <NA>  
    ## 10      1       4 Louise                  NA <NA>  
    ## # ℹ 586 more rows
…
*\* Both the `bakers` and the `bakes` dataset misspell the contestant’s
name “Joanne” as “Jo”. And the `bakes` dataset has extra quotation marks
around it.*

*The second one can be fixed:*

``` r
mutate(bakers,
    baker_first_name = gsub('Jo', 'Joanne', baker_first_name)
    )
```

    ## # A tibble: 120 × 6
    ##    baker_first_name baker_last_name series baker_age baker_occupation   hometown
    ##    <chr>            <chr>            <dbl>     <dbl> <chr>              <chr>   
    ##  1 Ali              Imdad                4        25 Charity worker     Saltley…
    ##  2 Alice            Fevronia            10        28 Geography teacher  Essex   
    ##  3 Alvin            Magallanes           6        37 Nurse              Brackne…
    ##  4 Amelia           LeBruin             10        24 Fashion designer   Halifax 
    ##  5 Andrew           Smyth                7        25 Aerospace engineer Derby /…
    ##  6 Annetha          Mills                1        30 Midwife            Essex   
    ##  7 Antony           Amourdoux            9        30 Banker             London  
    ##  8 Beca             Lyne-Pirkis          4        31 Military Wives' C… Aldersh…
    ##  9 Ben              Frazer               2        31 Graphic Designer   Northam…
    ## 10 Benjamina        Ebuehi               7        23 Teaching assistant South L…
    ## # ℹ 110 more rows

``` r
mutate(bakes,
    baker_first_name = gsub('\"Jo\"', 'Joanne', baker_first_name)
    )
```

    ## # A tibble: 548 × 5
    ##    series episode baker_first_name signature_bake                   show_stopper
    ##     <dbl>   <dbl> <chr>            <chr>                            <chr>       
    ##  1      1       1 Annetha          "Light Jamaican Black Cakewith … Red, White …
    ##  2      1       1 David            "Chocolate Orange Cake"          Black Fores…
    ##  3      1       1 Edd              "Caramel Cinnamon and Banana Ca… <NA>        
    ##  4      1       1 Jasminder        "Fresh Mango and Passion Fruit … <NA>        
    ##  5      1       1 Jonathan         "Carrot Cake with Lime and Crea… Three Tiere…
    ##  6      1       1 Lea              "Cranberry and Pistachio Cakewi… Raspberries…
    ##  7      1       1 Louise           "Carrot and Orange Cake"         Never Fail …
    ##  8      1       1 Mark             "Sticky Marmalade Tea Loaf"      Heart-shape…
    ##  9      1       1 Miranda          "Triple Layered Brownie Meringu… Three Tiere…
    ## 10      1       1 Ruth             "Three Tiered Lemon Drizzle Cak… Classic Cho…
    ## # ℹ 538 more rows
…
